<svg id="Laag_1" data-name="Laag 1" xmlns="http://www.w3.org/2000/svg" viewBox="0 0 85.04 85.04">
  <title>app Kielegat-vector onderdelen_extra</title>
  <rect width="85.04" height="85.04" style="fill: none"/>
  <path d="M20.19,30.73a1.2,1.2,0,0,0-.92-.47c-.6-.06-.74-.78-1.11-1.17,1,0,2.31.16,3.14.16-.09,1.88,1.33,2.38,1.67,3.18,0,.07-1.18-.4-1.19-.31A3.1,3.1,0,0,1,20.19,30.73Zm57.69-8.32c1.49-1.09,2-1.28,3.49-1.19.5,0,1.79.23.68-.75-1.71-1.53-3.4-2.42-5.55-1a7.71,7.71,0,0,0-.83.64c0-2.17,1.67-3.39,1.07-3.66-1.31-.74-3.88.68-5.38,2.25-.84-1-1.63-2-2.5-2.92-.71-.74-.94-.64-1.27.36s-.71,2-1.11,3.16c-1.35-1.57-2.76-1.78-4.62-1.71-1.61.06-.1.84.15,1a5,5,0,0,1,1.43,1.52c.89,1.38-.15,2.84,0,4.23-.63-.08-1.16-.11-1.25.46-.12.77,1.19.46,1,.89-.48-.06-1-.17-1.11,0-.26.18-.11.47,0,.46.46,0,.6.08.59.3s0,.15-.12.49a6,6,0,0,0,.36,1.89A3.86,3.86,0,0,1,63,30.41,3.79,3.79,0,0,0,64.14,34a.73.73,0,0,1,.09.56.57.57,0,0,1-.38.31,2.9,2.9,0,0,1-.67,0,3.64,3.64,0,0,0-2.38.74.75.75,0,0,1-.56.17,1.23,1.23,0,0,0-1.58,1,3.89,3.89,0,0,1-.45-.3,1.15,1.15,0,0,0-1.86.17c-.4.57-1.64.5-1.77.54-.69.25-1.06-.18-1.42-.67-.14-.19-1.06-1.1-1.31-1.42a.59.59,0,0,1-.07-.54c.12-.18.41-.4.57-.36a1.07,1.07,0,0,0,1.15-.38,1.86,1.86,0,0,0,1.32.56,1.82,1.82,0,0,0,1.7-1.15h0A1.45,1.45,0,0,0,58,31.83a1.3,1.3,0,0,0-.1-.49,1.38,1.38,0,0,0,.1-.49A1.28,1.28,0,0,0,58,30.5a1.3,1.3,0,0,0-.87-1.68c0-.11,0-.21.07-.3.23-1.15.55-2.27.85-3.4s.6-2.21.87-3.33a1.11,1.11,0,0,0-.64-1.4c-.87-.43-1.74-.83-2.64-1.26a1.77,1.77,0,0,0,.25-.47.66.66,0,0,0,0-.5,1.7,1.7,0,0,0-2.55-.23c-.12.12-.29.28-.43.27-.53,0-1.05-.12-1.57-.19a1.65,1.65,0,0,0-2.06,1L47,22.86c-.2.33-.39.47-.6.77a.86.86,0,0,0-.68-.39.41.41,0,0,0-.41.41c0,.32.17.36.41.49.45.24.33.25.18.48-.44-.23-.36-.1-1.24-.47a.31.31,0,0,0-.38.11.46.46,0,0,0,0,.38c.11.26.2.27.53.47.16.08.21.15.39.24A4.23,4.23,0,0,0,43.47,28c-1-.41-1.69-.33-2,.17s-.22,1.09.47,1.94c-.85.88-.83,1,.21,1.93-.48.29-.41.71-.24,1.13s.46,1.12.75,1.83c-.57,0-1.2-.15-1.61.09-.93.55-2.88,0-3-.06a1.56,1.56,0,0,0-2,.49,1.18,1.18,0,0,1-1.05.22c-.46-.36-.52-.36-1.33-.29a.7.7,0,0,1-.49-.12c-.59-.48-.76-.4-1.49-.21l-.6.16c0-.17,0-.39.06-.49.42-.46.07-.8-.2-1.06a4.31,4.31,0,0,0-.91-.46,1,1,0,0,1-.37-.27s.08-.28.14-.28a1.82,1.82,0,0,1,.43.11c.21,0,.45.15.63.08a1.65,1.65,0,0,1,2.12.58c.12.15.24.26.4.08.4-.69.21-.39-.16-.76.21.11.28.1.48-.05.2-.39-.25-.4-.15-.6a2.07,2.07,0,0,1,.71-.63c.15-.1.37-.09.51-.2a9.7,9.7,0,0,0,1.05-.89c.22-.22.37-.54.58-.78A1.9,1.9,0,0,0,37,28.12a2.59,2.59,0,0,0,.92.17A2.82,2.82,0,0,0,40.4,26.7a2.45,2.45,0,0,0,.41-1.23,3.23,3.23,0,0,0-.52-1.62,2.82,2.82,0,0,0-2.4-1.37,2.65,2.65,0,0,0-.85.13c.39-1.45.83-2.88,1.2-4.34.47-1.84.89-3.7,1.33-5.55a12.83,12.83,0,0,0,.34-1.46.86.86,0,0,0-.3-.67.8.8,0,0,0-.72,0,7.74,7.74,0,0,0-1,.89l-8.51,7.79c-.85.79-1.26,1.16-2.11,1.1-1.43-.12-3.13,1.92-3.5,3.4-.1.42-.18.3-.32.72a1.37,1.37,0,0,0-1.79.3,1.69,1.69,0,0,0,.07,2.28,7.51,7.51,0,0,1-1.41.45,2.51,2.51,0,0,1-1.21-.22c-.46-.2-1.08-.29-1.19-.94-.18-1.14-.46-1.53-1.53-1.77-.64-.14-1.15.25-1.8.15a7.56,7.56,0,0,1-1.74-.73c-1.41-.7-2.8-1.47-4.18-2.23a.8.8,0,0,0-1.2.31,7.72,7.72,0,0,0-1.51,4.76,6.25,6.25,0,0,0,.23,1.35c.08.34.31.46.68.47,1.16,0,5.5.36,6.51.3A1.46,1.46,0,0,1,15,30.14c.24.63-.36,1.45.52,1.84-.64.68-.7.94-.11,1.27s.76,1.08.89,1.7a2.35,2.35,0,0,0,1.27,1.71c.14.07.33.26.33.4A1.74,1.74,0,0,0,19,38.58c.27.15.56.28.85.43-.32.54-1.83,3.3-2.53,4.81-.48.58-.94,1.14-.57,2,.18.42-.1.59-.47.68s-.56.1-.81.71a3.25,3.25,0,0,1-.91,1,6,6,0,0,1-.9.66,3.69,3.69,0,0,1-1.15.49c-1.71-.12-2.71.86-3.48,2.27-.43.79-.87,1.59-1.35,2.35q-.35.56.09.87c.37.28,1.56,1,1.54,1a6.75,6.75,0,0,1-1,1.35c-.28.25-.48.43-.45.85s-.1.71-.64.63c-.24,0-.52.13-.79.19s-.38.14-.53.09c-.73-.26-1.43-.55-2.15-.84a.89.89,0,0,0-1.21.53,1.25,1.25,0,0,0,.15,1.53c1.36,1.51,3.25,2,5,2.7a2,2,0,0,0,2.21-.84,23.25,23.25,0,0,1,1.84-2.44c.48-.53.84-1.56,1.91-1a1,1,0,0,0,.38.12,2.57,2.57,0,0,0,1-.58c.54-.47,1-.69.87-1.15-.11-.64,0-.63.59-.64a15.25,15.25,0,0,0,1.79,0,6.87,6.87,0,0,0,1.3-.44c.16.23.33.44.46.67a8.24,8.24,0,0,1,.6,1.32c.13.43.11.93.23,1.33a5,5,0,0,0,.9,1.83,3.09,3.09,0,0,0,.84.94,1.62,1.62,0,0,0,.53.3c.29.15.55.34.84.48A2.07,2.07,0,0,1,25,64.17c0,.09.19.17.3.19a15.58,15.58,0,0,0,1.65.23c.43,0,.81,0,1,.49a4.21,4.21,0,0,0,.39.64A1.54,1.54,0,0,1,28,67.88a2.87,2.87,0,0,0-.68.71,1.08,1.08,0,0,0,.88,1.77,4.76,4.76,0,0,0,3.1-.64,2.48,2.48,0,0,0,1.46-2.4.71.71,0,0,1,.14-.38c.25-.36.49-.73.77-1.07.13-.16.35-.38.5-.36a12,12,0,0,0,4.2-.71c.9-.22,1.1-.62.9-1.55a2.09,2.09,0,0,0-.38-.7,3.33,3.33,0,0,1-.09-4c.29-.47.61-.71,1.16-.45a1,1,0,0,0,1.34-.38c.16-.19.48,0,.36.14a2,2,0,0,0-.33,2c.39,1.13.86,2.22,1.31,3.32a3,3,0,0,0,1.51,1.66c.19.09.47.23.52.4.25.9,1,.93,1.65,1s.5,1,1,1.17a.49.49,0,0,1,.16.39.57.57,0,0,1-.26.3,5.07,5.07,0,0,1-2.84,1,2.12,2.12,0,0,0-1.2.58c-.45.4-.37.84.15,1.11a6.05,6.05,0,0,0,1.8.55,12.75,12.75,0,0,0,5.22-.11c.94-.24,1.48-.82,1-2.09a4.1,4.1,0,0,0-.54-1,1.42,1.42,0,0,1-.18-1,1.34,1.34,0,0,0-.13-1.2.7.7,0,0,1,0-.9,2.16,2.16,0,0,0,.59-1.19,1.81,1.81,0,0,0-.24-1.67,3.21,3.21,0,0,0-.64-.64c.27.23.4-.49.55-.73.59-.94.27-2.13.77-2.54,1-.84,1.35-1.16,1.61-1.91a2.31,2.31,0,0,0,0-1.4c-.2-.66.12-.91.65-1.16a6.93,6.93,0,0,0,1.54-1A1.35,1.35,0,0,0,55.59,51a11.08,11.08,0,0,1-.53-2.17,4.38,4.38,0,0,1-.23-2.35,1.34,1.34,0,0,0-.33-1.41c-.19-.2-.08-.7-.1-1a10.45,10.45,0,0,1,.08-1.34l2.39.34c.15.73.57,1,1.62,1.18a1.67,1.67,0,0,0,1.79-.6,8.45,8.45,0,0,0,1,.87c.3.19.43.34.21.67a5.69,5.69,0,0,0-.21,2,1.61,1.61,0,0,1-.64,1.9A2,2,0,0,0,59.84,51a2.53,2.53,0,0,0,.46,1.36c.22.29.47.53.45.72a1.42,1.42,0,0,1-.51.92c-.65.55-1.43.93-1.56,1.95,0,.22-.41.47-.67.56-.78.25-1.49.62-1.63,1.49a15.87,15.87,0,0,0,0,2.39,1,1,0,0,1-.19.6,1.86,1.86,0,0,0-.46,1.82c0,.16-.16.49-.25.66a1.48,1.48,0,0,0,.4,1.51c.79.75.75,1.32.78,2.41-1,.44-1.33.6-3.07.13a1.28,1.28,0,0,0-1.16,2.21,5.45,5.45,0,0,0,3.11.92,11.29,11.29,0,0,0,4.29,0c.94-.21,1.06-.75.94-1.73a2.27,2.27,0,0,1,.3-1.78.52.52,0,0,0,0-.47c-.33-.58,0-.45.43-.65s.26-1.74.69-2.85a9.77,9.77,0,0,1,.72-1.68,1.93,1.93,0,0,1,1.19-.92,4.27,4.27,0,0,1,.72-.21,2.32,2.32,0,0,1,.72.24,5.13,5.13,0,0,1,1.37,1.91,6.44,6.44,0,0,0,1.94,2.44,12.78,12.78,0,0,0,2.51,1,2.12,2.12,0,0,0,1.86.06,6.15,6.15,0,0,1,1.49-.46,2.35,2.35,0,0,1-.84,1.71,5.61,5.61,0,0,0-.71.49c-.47.39-.33.91-.18,1.38a.85.85,0,0,0,.85.56,6,6,0,0,0,2.28-.15,2.5,2.5,0,0,0,1.8-1.59c.26-.68.54-1.36.84-2a1.49,1.49,0,0,0-.63-2c-.31-.17-.56-.45-.86-.64a1.3,1.3,0,0,0-.56-.11,2.8,2.8,0,0,0-.5,0c0-.17,0-.35.09-.52a2.55,2.55,0,0,1,.14-.35c.39-.82.21-1.18-.67-1.32-.28,0-.7,0-.8-.19A2.1,2.1,0,0,0,73.41,60c-.06-.42-.16-.65-.22-1a7.75,7.75,0,0,1-.14-1.63c.15-1.47-.25-1.4.71-2.43.19-.21.27-.18.54-.24A3.44,3.44,0,0,0,77,51.41a11.86,11.86,0,0,0-1-4.06,28.08,28.08,0,0,1,.12-3.16,9.73,9.73,0,0,1,.61-2.82c.42-1.45.7-2.6,1-4.07A1.94,1.94,0,0,0,76.61,35a7.11,7.11,0,0,0-1.33-.43c-.54-.11-1.1-.15-1.65-.23a3.54,3.54,0,0,1-.55-.18c.16-.21.28-.55.47-.61.4-.11.59-.16.64-.29l.08,0a1.46,1.46,0,0,0,1.48-1.42,1.35,1.35,0,0,0,.5-.95,3.41,3.41,0,0,0,.18-.48,2.76,2.76,0,0,0,0-1.74,1.34,1.34,0,0,0,.09-.45,1.31,1.31,0,0,0-.2-.67,1.35,1.35,0,0,0-.5-.74c.09-.27.14-.5-.06-.51.51-1.07.72-1.6,1.23-2.58A5.09,5.09,0,0,1,77.88,22.41ZM39.92,46a1.29,1.29,0,0,0-.49,1.73,1.57,1.57,0,0,1-.25,1.5c-.21.39-.41.59-.59.94a1.38,1.38,0,0,1-1,.86,29.9,29.9,0,0,0-2.95.66A3.4,3.4,0,0,0,33,53.25a8.18,8.18,0,0,0-.82,2.28,5.27,5.27,0,0,0,.05,2.09c.1.55.08,1.18.6,1.6.12.09,0,.52.09.62a2.38,2.38,0,0,0,1,.64c.63.13.57,1.5.62,1.62.28.66-.18.72-.6.82a4.41,4.41,0,0,1-2.76-.29l.56-.83a1.57,1.57,0,0,0-.91-2.57c-.38-.11-.75-.33-.48-.84A1.89,1.89,0,0,0,30.13,56a1.89,1.89,0,0,1-.28-.48,4.63,4.63,0,0,0,1.25-.65.86.86,0,0,0,0-1.27c0-.07,0-.13.05-.14a2.61,2.61,0,0,0,1.31-2.74c-.09-1.07-.1-2.14-.13-3.22a3.64,3.64,0,0,1,0-.81c0-.15.18-.39.24-.38.73.05,1-.19,1.54-.7a12.11,12.11,0,0,0,1.76-2.3,2.27,2.27,0,0,0,.24-.8c.08-.51.43-.61,1-.19.7.55,2.37.12,2.42.09a12.39,12.39,0,0,1,.82,1,.92.92,0,0,1,.11.5C40.48,44.2,40.32,45.73,39.92,46Z" style="fill: #004494"/>
</svg>
