<svg id="Laag_1" data-name="Laag 1" xmlns="http://www.w3.org/2000/svg" viewBox="0 0 24.09 24.09">
  <title>app Kielegat-vector onderdelen</title>
  <path d="M14.11,0a14.07,14.07,0,0,1,10,4.13l-5,5a7.06,7.06,0,0,0-10,10l-5,5A14.11,14.11,0,0,1,14.11,0Z" style="fill: #e98239"/>
</svg>
