<svg id="Laag_1" data-name="Laag 1" xmlns="http://www.w3.org/2000/svg" viewBox="0 0 85.04 85.04">
  <title>app Kielegat-vector onderdelen</title>
  <rect width="85.04" height="85.04" style="fill: none"/>
  <g>
    <path d="M80.68,20.41a10.62,10.62,0,0,0-7.79-3.23H63.25l-2.2-5.85a8,8,0,0,0-3-3.65,7.7,7.7,0,0,0-4.45-1.52h-22a7.7,7.7,0,0,0-4.45,1.52,8,8,0,0,0-3,3.65l-2.2,5.85H12.28a10.65,10.65,0,0,0-7.8,3.23A10.61,10.61,0,0,0,1.26,28.2V66.77a10.61,10.61,0,0,0,3.22,7.79,10.61,10.61,0,0,0,7.8,3.23H72.89a11,11,0,0,0,11-11V28.2a10.62,10.62,0,0,0-3.23-7.79ZM56.21,61.11a18.59,18.59,0,0,1-13.63,5.66A18.57,18.57,0,0,1,29,61.11,18.55,18.55,0,0,1,23.3,47.49,19.32,19.32,0,0,1,42.58,28.2a18.61,18.61,0,0,1,13.63,5.66,18.59,18.59,0,0,1,5.66,13.63,18.59,18.59,0,0,1-5.66,13.62Zm0,0" style="fill: #fff"/>
    <path d="M42.58,35.09a12.41,12.41,0,0,0-12.39,12.4A12.39,12.39,0,0,0,42.58,59.88,12.39,12.39,0,0,0,55,47.49a12.41,12.41,0,0,0-12.4-12.4Zm0,0" style="fill: #fff"/>
  </g>
</svg>
