<svg id="Laag_1" data-name="Laag 1" xmlns="http://www.w3.org/2000/svg" viewBox="0 0 85.04 85.04">
  <title>app Kielegat-vector onderdelen_extra 2</title>
  <rect width="85.04" height="85.04" style="fill: none"/>
  <path d="M71.23,38.91,66.47,23a8.43,8.43,0,0,0-8.13-6H55.13V12.75a4.24,4.24,0,0,0-4.24-4.24h-17a4.24,4.24,0,0,0-4.24,4.24V17H26.47a8.44,8.44,0,0,0-8.13,6L13.58,38.91a8.5,8.5,0,0,0-5.11,7.78v17a4.24,4.24,0,0,0,4.24,4.24v4.24A4.24,4.24,0,0,0,17,76.39h4.24a4.25,4.25,0,0,0,4.25-4.25V67.9H59.37v4.24a4.25,4.25,0,0,0,4.25,4.25h4.24a4.24,4.24,0,0,0,4.24-4.25V67.9h0a4.24,4.24,0,0,0,4.24-4.24v-17a8.5,8.5,0,0,0-5.11-7.78ZM26.47,25.48H58.34l3.82,12.73H22.65Zm-1,31.82a4.25,4.25,0,1,1,4.24-4.25,4.25,4.25,0,0,1-4.24,4.25Zm33.93,0a4.25,4.25,0,1,1,4.25-4.25,4.24,4.24,0,0,1-4.25,4.25Zm0,0" style="fill: #004494"/>
</svg>
