<svg id="Laag_1" data-name="Laag 1" xmlns="http://www.w3.org/2000/svg" viewBox="0 0 85.04 85.04">
  <title>app Kielegat-vector onderdelen</title>
  <rect width="85.04" height="85.04" style="fill: none"/>
  <path d="M42.36,62.2l-3.68-3.65C28.43,49.54,21,43,21,34.62A12.14,12.14,0,0,1,33.29,22.38,13.31,13.31,0,0,1,42.36,26a13.31,13.31,0,0,1,9.08-3.66A12.15,12.15,0,0,1,63.75,34.62c0,8.37-7.45,14.91-17.76,24Z" style="fill: #004494"/>
</svg>
