<svg id="Laag_1" data-name="Laag 1" xmlns="http://www.w3.org/2000/svg" viewBox="0 0 24.09 24.09">
  <title>app Kielegat-vector onderdelen</title>
  <path d="M10,24.09A14.07,14.07,0,0,1,0,20l5-5A7.06,7.06,0,0,0,15,5l5-5A14.11,14.11,0,0,1,10,24.09Z" style="fill: #c91517"/>
</svg>
