<svg id="Laag_1" data-name="Laag 1" xmlns="http://www.w3.org/2000/svg" viewBox="0 0 85.04 85.04">
  <title>app Kielegat-vector onderdelen</title>
  <rect width="85.04" height="85.04" style="fill: none"/>
  <path d="M71.44,38.68,66.68,22.81a8.44,8.44,0,0,0-8.13-6H55.34V12.52A4.24,4.24,0,0,0,51.1,8.28h-17a4.24,4.24,0,0,0-4.24,4.24v4.24H26.68a8.42,8.42,0,0,0-8.12,6L13.79,38.68a8.5,8.5,0,0,0-5.11,7.78v17a4.24,4.24,0,0,0,4.24,4.24v4.24a4.24,4.24,0,0,0,4.24,4.24h4.25a4.24,4.24,0,0,0,4.24-4.24V67.67H59.59v4.24a4.24,4.24,0,0,0,4.24,4.24h4.24a4.24,4.24,0,0,0,4.24-4.24V67.67h0a4.24,4.24,0,0,0,4.24-4.24v-17a8.5,8.5,0,0,0-5.11-7.78ZM26.68,25.25H58.55L62.37,38H22.87Zm-1,31.81a4.24,4.24,0,1,1,4.24-4.24,4.24,4.24,0,0,1-4.24,4.24Zm33.94,0a4.24,4.24,0,1,1,4.24-4.24,4.24,4.24,0,0,1-4.24,4.24Zm0,0" style="fill: #004494"/>
</svg>
